<?xml version="1.0" encoding="UTF-8"?>
<svg xmlns="http://www.w3.org/2000/svg" xmlns:xlink="http://www.w3.org/1999/xlink" width="26pt" height="26pt" viewBox="0 0 26 26" version="1.1">
<g id="surface1">
<path style=" stroke:none;fill-rule:nonzero;fill:rgb(88.627451%,88.627451%,88.627451%);fill-opacity:1;" d="M 13.132812 24.601562 L 13.527344 22.359375 C 13.527344 22.359375 9.960938 11.976562 9.9375 11.835938 C 9.890625 11.570312 9.886719 11.296875 9.917969 11.027344 L 5.601562 10.410156 L 5.480469 11.101562 L 3.746094 10.800781 C 3.195312 10.703125 2.628906 10.828125 2.167969 11.152344 C 1.710938 11.472656 1.398438 11.964844 1.300781 12.515625 L 0.144531 19.113281 C -0.0546875 20.261719 0.714844 21.355469 1.863281 21.558594 L 3.597656 21.859375 L 3.414062 22.902344 C 3.164062 22.851562 2.90625 22.941406 2.742188 23.136719 C 2.574219 23.332031 2.527344 23.601562 2.617188 23.839844 C 2.707031 24.078125 2.917969 24.25 3.171875 24.289062 L 12.886719 25.988281 C 13.269531 26.054688 13.636719 25.800781 13.703125 25.417969 C 13.769531 25.03125 13.511719 24.667969 13.128906 24.601562 Z M 3.839844 20.472656 L 2.453125 20.230469 C 1.878906 20.128906 1.492188 19.582031 1.59375 19.007812 L 2.625 13.105469 C 2.726562 12.53125 3.273438 12.148438 3.847656 12.25 L 5.238281 12.492188 Z M 3.839844 20.472656 "/>
<path style=" stroke:none;fill-rule:nonzero;fill:rgb(95.686275%,78.039216%,20.392157%);fill-opacity:1;" d="M 10.835938 11.683594 C 10.601562 11.761719 10.371094 11.851562 10.136719 11.917969 C 10.03125 11.949219 9.960938 11.976562 9.9375 11.835938 C 9.886719 11.558594 9.882812 11.277344 9.917969 11 C 9.917969 10.984375 9.925781 10.96875 9.929688 10.957031 L 6.054688 10.488281 L 3.957031 22.75 C 3.917969 23 4.085938 23.234375 4.335938 23.273438 L 12.242188 24.527344 C 12.488281 24.566406 12.722656 24.398438 12.765625 24.152344 L 13.210938 21.445312 L 10.902344 11.96875 C 10.871094 11.875 10.847656 11.78125 10.835938 11.683594 Z M 10.835938 11.683594 "/>
<path style=" stroke:none;fill-rule:nonzero;fill:rgb(88.627451%,88.627451%,88.627451%);fill-opacity:1;" d="M 9.988281 11.96875 L 14.074219 23.976562 C 13.710938 24.105469 13.519531 24.5 13.644531 24.867188 C 13.765625 25.230469 14.160156 25.429688 14.527344 25.308594 L 23.867188 22.132812 C 24.226562 22.003906 24.417969 21.605469 24.296875 21.242188 C 24.171875 20.878906 23.777344 20.679688 23.414062 20.796875 L 23 19.597656 L 24.40625 19.117188 C 25.511719 18.742188 26.105469 17.542969 25.726562 16.4375 L 23.574219 10.101562 C 23.195312 8.996094 21.996094 8.402344 20.890625 8.78125 L 19.488281 9.257812 L 19.328125 8.792969 Z M 23.621094 17.898438 L 22.550781 18.265625 L 19.941406 10.589844 L 21.011719 10.226562 C 21.5625 10.039062 22.164062 10.335938 22.351562 10.886719 L 24.28125 16.558594 C 24.46875 17.109375 24.171875 17.710938 23.621094 17.898438 Z M 23.621094 17.898438 "/>
<path style=" stroke:none;fill-rule:nonzero;fill:rgb(95.686275%,78.039216%,20.392157%);fill-opacity:1;" d="M 18.921875 8.929688 L 10.359375 11.84375 L 14.355469 23.339844 C 14.4375 23.578125 14.695312 23.703125 14.933594 23.625 L 22.523438 21.078125 C 22.761719 21 22.890625 20.742188 22.808594 20.5 Z M 18.921875 8.929688 "/>
<path style=" stroke:none;fill-rule:nonzero;fill:rgb(97.647059%,94.901961%,80%);fill-opacity:1;" d="M 9.917969 11 C 10.050781 9.921875 10.988281 9.128906 12.070312 9.175781 C 12.113281 9.113281 12.15625 9.054688 12.207031 8.996094 C 12.148438 8.976562 12.09375 8.960938 12.035156 8.949219 C 11.523438 8.886719 11.003906 8.917969 10.503906 9.039062 C 9.789062 8.222656 8.667969 7.882812 7.621094 8.175781 C 6.574219 8.46875 5.789062 9.335938 5.601562 10.40625 L 9.90625 11.246094 C 9.910156 11.167969 9.90625 11.082031 9.917969 11 Z M 9.917969 11 "/>
<path style=" stroke:none;fill-rule:nonzero;fill:rgb(97.647059%,94.901961%,80%);fill-opacity:1;" d="M 18.542969 0.914062 C 18.542969 1.417969 18.136719 1.824219 17.632812 1.824219 C 17.128906 1.824219 16.71875 1.417969 16.71875 0.914062 C 16.71875 0.410156 17.128906 0 17.632812 0 C 18.136719 0 18.542969 0.410156 18.542969 0.914062 Z M 18.542969 0.914062 "/>
<path style=" stroke:none;fill-rule:nonzero;fill:rgb(97.647059%,94.901961%,80%);fill-opacity:1;" d="M 15.351562 4.105469 C 15.351562 5.113281 14.535156 5.929688 13.527344 5.929688 C 12.519531 5.929688 11.703125 5.113281 11.703125 4.105469 C 11.703125 3.097656 12.519531 2.28125 13.527344 2.28125 C 14.535156 2.28125 15.351562 3.097656 15.351562 4.105469 Z M 15.351562 4.105469 "/>
<path style=" stroke:none;fill-rule:nonzero;fill:rgb(97.647059%,94.901961%,80%);fill-opacity:1;" d="M 8.507812 4.5625 C 8.507812 5.316406 7.894531 5.929688 7.140625 5.929688 C 6.382812 5.929688 5.769531 5.316406 5.769531 4.5625 C 5.769531 3.804688 6.382812 3.191406 7.140625 3.191406 C 7.894531 3.191406 8.507812 3.804688 8.507812 4.5625 Z M 8.507812 4.5625 "/>
<path style=" stroke:none;fill-rule:nonzero;fill:rgb(97.647059%,94.901961%,80%);fill-opacity:1;" d="M 5.316406 0.914062 C 5.316406 1.417969 4.90625 1.824219 4.402344 1.824219 C 3.898438 1.824219 3.492188 1.417969 3.492188 0.914062 C 3.492188 0.410156 3.898438 0 4.402344 0 C 4.90625 0 5.316406 0.410156 5.316406 0.914062 Z M 5.316406 0.914062 "/>
<path style=" stroke:none;fill-rule:nonzero;fill:rgb(87.843137%,71.764706%,18.823529%);fill-opacity:1;" d="M 15.957031 13.542969 C 15.917969 13.425781 15.832031 13.328125 15.71875 13.277344 C 15.609375 13.375 15.484375 13.449219 15.347656 13.496094 C 15.265625 13.523438 15.183594 13.539062 15.101562 13.546875 C 15.066406 13.636719 15.066406 13.742188 15.09375 13.835938 L 17.75 21.644531 C 17.832031 21.882812 18.089844 22.007812 18.328125 21.929688 C 18.566406 21.847656 18.695312 21.589844 18.613281 21.351562 Z M 15.957031 13.542969 "/>
<path style=" stroke:none;fill-rule:nonzero;fill:rgb(87.843137%,71.764706%,18.823529%);fill-opacity:1;" d="M 13.046875 14.050781 C 13.285156 13.96875 13.542969 14.097656 13.625 14.335938 L 16.28125 22.144531 C 16.363281 22.382812 16.234375 22.640625 15.996094 22.722656 C 15.757812 22.804688 15.5 22.675781 15.417969 22.4375 L 12.761719 14.628906 C 12.679688 14.390625 12.808594 14.132812 13.046875 14.050781 Z M 13.046875 14.050781 "/>
<path style=" stroke:none;fill-rule:nonzero;fill:rgb(87.843137%,71.764706%,18.823529%);fill-opacity:1;" d="M 17.714844 12.460938 C 17.953125 12.382812 18.210938 12.507812 18.292969 12.746094 L 20.949219 20.554688 C 21.03125 20.792969 20.902344 21.054688 20.664062 21.132812 C 20.425781 21.214844 20.167969 21.085938 20.085938 20.847656 L 17.429688 13.042969 C 17.347656 12.800781 17.476562 12.542969 17.714844 12.460938 Z M 17.714844 12.460938 "/>
<path style=" stroke:none;fill-rule:nonzero;fill:rgb(87.843137%,71.764706%,18.823529%);fill-opacity:1;" d="M 8.023438 22.691406 L 9.445312 14.570312 C 9.488281 14.320312 9.722656 14.15625 9.972656 14.199219 C 10.21875 14.242188 10.386719 14.476562 10.34375 14.726562 L 8.921875 22.851562 C 8.878906 23.097656 8.640625 23.265625 8.394531 23.222656 C 8.144531 23.175781 7.980469 22.941406 8.023438 22.691406 Z M 8.023438 22.691406 "/>
<path style=" stroke:none;fill-rule:nonzero;fill:rgb(87.843137%,71.764706%,18.823529%);fill-opacity:1;" d="M 10.445312 23.121094 L 11.183594 18.65625 C 11.222656 18.40625 11.457031 18.238281 11.707031 18.28125 C 11.957031 18.320312 12.125 18.554688 12.082031 18.804688 L 11.347656 23.269531 C 11.304688 23.519531 11.070312 23.6875 10.824219 23.644531 C 10.574219 23.605469 10.40625 23.371094 10.445312 23.121094 Z M 10.445312 23.121094 "/>
<path style=" stroke:none;fill-rule:nonzero;fill:rgb(87.843137%,71.764706%,18.823529%);fill-opacity:1;" d="M 5.59375 22.265625 L 7.015625 14.144531 C 7.058594 13.894531 7.292969 13.730469 7.542969 13.773438 C 7.789062 13.816406 7.957031 14.054688 7.914062 14.300781 L 6.492188 22.425781 C 6.449219 22.671875 6.210938 22.839844 5.964844 22.796875 C 5.714844 22.753906 5.550781 22.515625 5.59375 22.265625 Z M 5.59375 22.265625 "/>
<path style=" stroke:none;fill-rule:nonzero;fill:rgb(80%,80%,80%);fill-opacity:1;" d="M 12.8125 25.371094 C 12.800781 25.371094 12.789062 25.371094 12.773438 25.371094 L 3.453125 23.800781 C 3.394531 23.792969 3.339844 23.757812 3.304688 23.710938 C 3.269531 23.660156 3.253906 23.597656 3.265625 23.539062 C 3.289062 23.414062 3.40625 23.332031 3.527344 23.351562 L 12.851562 24.917969 C 12.96875 24.941406 13.050781 25.046875 13.039062 25.164062 C 13.03125 25.28125 12.933594 25.371094 12.8125 25.371094 Z M 12.8125 25.371094 "/>
<path style=" stroke:none;fill-rule:nonzero;fill:rgb(80%,80%,80%);fill-opacity:1;" d="M 14.351562 24.660156 C 14.242188 24.660156 14.144531 24.582031 14.125 24.46875 C 14.109375 24.359375 14.171875 24.25 14.277344 24.214844 L 23.257812 21.136719 C 23.378906 21.097656 23.507812 21.160156 23.546875 21.277344 C 23.589844 21.398438 23.527344 21.527344 23.40625 21.570312 L 14.425781 24.648438 C 14.402344 24.65625 14.378906 24.660156 14.351562 24.660156 Z M 14.351562 24.660156 "/>
<path style=" stroke:none;fill-rule:nonzero;fill:rgb(97.647059%,94.901961%,80%);fill-opacity:1;" d="M 9.917969 11 C 9.882812 11.277344 9.890625 11.558594 9.9375 11.835938 C 9.960938 11.972656 10.03125 11.949219 10.136719 11.917969 C 10.390625 11.847656 10.640625 11.75 10.890625 11.660156 C 11.128906 11.582031 11.390625 11.707031 11.472656 11.945312 L 11.757812 12.792969 C 11.925781 13.324219 12.464844 13.644531 13.015625 13.539062 C 13.304688 13.472656 13.554688 13.285156 13.703125 13.023438 C 13.847656 12.761719 13.875 12.453125 13.777344 12.167969 L 13.988281 12.777344 C 14.15625 13.308594 14.695312 13.632812 15.242188 13.527344 C 15.535156 13.457031 15.78125 13.273438 15.929688 13.011719 C 16.074219 12.75 16.101562 12.4375 16.007812 12.15625 L 15.472656 10.585938 C 15.390625 10.347656 15.519531 10.085938 15.757812 10.007812 L 19.328125 8.792969 C 18.980469 7.761719 18.070312 7.027344 16.988281 6.898438 C 15.910156 6.773438 14.855469 7.277344 14.277344 8.199219 C 13.410156 8.03125 12.527344 8.421875 12.070312 9.175781 C 10.992188 9.140625 10.0625 9.929688 9.917969 11 Z M 9.917969 11 "/>
</g>
</svg>
